{
    "quoteSummary": {
        "result": [
            {
                "assetProfile": {
                    "address1": "One Microsoft Way",
                    "city": "Redmond",
                    "state": "WA",
                    "zip": "98052-6399",
                    "country": "United States",
                    "phone": "425 882 8080",
                    "website": "https://www.microsoft.com",
                    "industry": "Software—Infrastructure",
                    "sector": "Technology",
                    "longBusinessSummary": "Microsoft Corp. ist ein weltweit führendes Softwareunternehmen. Die Gesellschaft bietet ein breites Spektrum an Software-Produkten und Dienstleistungen für verschiedene Nutzergeräte. Die Produktpalette erstreckt sich von den Windows-Betriebssystemen für PCs, Mobilgeräte und Netzwerke über Serversoftware für Client-Server-Umgebungen, Anwendungsprogramme und Desktop-Applikationen für Unternehmen sowie private Nutzer und Multimedia-Anwendungen bis hin zu Internet-Plattformen und Entwickler-Tools. Zusammen mit dem weltweit meistverwendeten Betriebssystem Windows bilden die Büroprogramme der Marke Office die Hauptstützen des Unternehmens. Im Onlinebereich betreibt der Konzern die Internet-Suchmaschine Bing und die Abonnementversionen der neuesten Office-Varianten. Über den Internet-Telefondienst Skype stellt das Unternehmen seinen Kunden sowohl Sprach- als auch Videotelefonie zur Verfügung. Im Tablet- und Softwaremarkt ist das Unternehmen über das Tablet Surface und die in Zusammenarbeit mit verschiedenen Smartphone-Herstellern wie HTC und Samsung entwickelten Windows Phones vertreten. Mit den Videospielkonsolen Xbox 360 und Xbox One platziert sich Microsoft außerdem an den Spitzenpositionen der Videospielbranche. Zudem übernahm Microsoft 2014 die gesamte Handysparte von Nokia. 2016 übernahm der Technologie-Riese zudem das Karriere-Netzwerk LinkedIn.",
                    "fullTimeEmployees": 181000,
                    "companyOfficers": [
                        {
                            "maxAge": 1,
                            "name": "Mr. Satya  Nadella",
                            "age": 54,
                            "title": "Chairman & CEO",
                            "yearBorn": 1967,
                            "fiscalYear": 2021,
                            "totalPay": {
                                "raw": 16822250,
                                "fmt": "16,82M",
                                "longFmt": "16.822.250"
                            },
                            "exercisedValue": {
                                "raw": 0,
                                "fmt": null,
                                "longFmt": "0"
                            },
                            "unexercisedValue": {
                                "raw": 0,
                                "fmt": null,
                                "longFmt": "0"
                            }
                        },
                        {
                            "maxAge": 1,
                            "name": "Mr. Bradford L. Smith LCA",
                            "age": 62,
                            "title": "Pres, Chief Legal Officer & Vice Chairman",
                            "yearBorn": 1959,
                            "fiscalYear": 2021,
                            "totalPay": {
                                "raw": 5357041,
                                "fmt": "5,36M",
                                "longFmt": "5.357.041"
                            },
                            "exercisedValue": {
                                "raw": 0,
                                "fmt": null,
                                "longFmt": "0"
                            },
                            "unexercisedValue": {
                                "raw": 0,
                                "fmt": null,
                                "longFmt": "0"
                            }
                        },
                        {
                            "maxAge": 1,
                            "name": "Ms. Amy E. Hood",
                            "age": 49,
                            "title": "Exec. VP & CFO",
                            "yearBorn": 1972,
                            "fiscalYear": 2021,
                            "totalPay": {
                                "raw": 5601737,
                                "fmt": "5,6M",
                                "longFmt": "5.601.737"
                            },
                            "exercisedValue": {
                                "raw": 0,
                                "fmt": null,
                                "longFmt": "0"
                            },
                            "unexercisedValue": {
                                "raw": 0,
                                "fmt": null,
                                "longFmt": "0"
                            }
                        },
                        {
                            "maxAge": 1,
                            "name": "Mr. Christopher David Young",
                            "age": 49,
                            "title": "Exec. VP of Bus. Devel., Strategy & Ventures",
                            "yearBorn": 1972,
                            "fiscalYear": 2021,
                            "totalPay": {
                                "raw": 5900449,
                                "fmt": "5,9M",
                                "longFmt": "5.900.449"
                            },
                            "exercisedValue": {
                                "raw": 0,
                                "fmt": null,
                                "longFmt": "0"
                            },
                            "unexercisedValue": {
                                "raw": 0,
                                "fmt": null,
                                "longFmt": "0"
                            }
                        },
                        {
                            "maxAge": 1,
                            "name": "Ms. Alice L. Jolla",
                            "age": 55,
                            "title": "Corp. VP of Fin. & Admin. and Chief Accounting Officer",
                            "yearBorn": 1966,
                            "exercisedValue": {
                                "raw": 0,
                                "fmt": null,
                                "longFmt": "0"
                            },
                            "unexercisedValue": {
                                "raw": 0,
                                "fmt": null,
                                "longFmt": "0"
                            }
                        },
                        {
                            "maxAge": 1,
                            "name": "Brett  Iversen",
                            "title": "Gen. Mang. of Investor Relations",
                            "exercisedValue": {
                                "raw": 0,
                                "fmt": null,
                                "longFmt": "0"
                            },
                            "unexercisedValue": {
                                "raw": 0,
                                "fmt": null,
                                "longFmt": "0"
                            }
                        },
                        {
                            "maxAge": 1,
                            "name": "Mr. Frank X. Shaw",
                            "title": "Corp. VP for Corp. Communications",
                            "exercisedValue": {
                                "raw": 0,
                                "fmt": null,
                                "longFmt": "0"
                            },
                            "unexercisedValue": {
                                "raw": 0,
                                "fmt": null,
                                "longFmt": "0"
                            }
                        },
                        {
                            "maxAge": 1,
                            "name": "Mr. Christopher C. Capossela",
                            "age": 51,
                            "title": "Exec. VP of Marketing & Consumer Bus. and Chief Marketing Officer",
                            "yearBorn": 1970,
                            "exercisedValue": {
                                "raw": 0,
                                "fmt": null,
                                "longFmt": "0"
                            },
                            "unexercisedValue": {
                                "raw": 0,
                                "fmt": null,
                                "longFmt": "0"
                            }
                        },
                        {
                            "maxAge": 1,
                            "name": "Mr. Keith Ranger Dolliver Esq.",
                            "title": "VP, Deputy Gen. Counsel of Corp., External & Legal Affairs and Assistant Sec.",
                            "exercisedValue": {
                                "raw": 0,
                                "fmt": null,
                                "longFmt": "0"
                            },
                            "unexercisedValue": {
                                "raw": 0,
                                "fmt": null,
                                "longFmt": "0"
                            }
                        },
                        {
                            "maxAge": 1,
                            "name": "Ms. Kathleen T. Hogan",
                            "age": 55,
                            "title": "Exec. VP & Chief HR Officer",
                            "yearBorn": 1966,
                            "exercisedValue": {
                                "raw": 0,
                                "fmt": null,
                                "longFmt": "0"
                            },
                            "unexercisedValue": {
                                "raw": 0,
                                "fmt": null,
                                "longFmt": "0"
                            }
                        }
                    ],
                    "auditRisk": 4,
                    "boardRisk": 2,
                    "compensationRisk": 4,
                    "shareHolderRightsRisk": 1,
                    "overallRisk": 1,
                    "governanceEpochDate": 1632614400,
                    "compensationAsOfEpochDate": 1640908800,
                    "maxAge": 86400
                }
            }
        ],
        "error": null
    }
}