{
   "chart":{
      "result":[
         {
            "meta":{
               "currency":"USD",
               "symbol":"MSFT",
               "exchangeName":"NMS",
               "instrumentType":"EQUITY",
               "firstTradeDate":511108200,
               "regularMarketTime":1642798803,
               "gmtoffset":-18000,
               "timezone":"EST",
               "exchangeTimezoneName":"America/New_York",
               "regularMarketPrice":296.03,
               "chartPreviousClose":29.71,
               "priceHint":2,
               "currentTradingPeriod":{
                  "pre":{
                     "timezone":"EST",
                     "start":1642755600,
                     "end":1642775400,
                     "gmtoffset":-18000
                  },
                  "regular":{
                     "timezone":"EST",
                     "start":1642775400,
                     "end":1642798800,
                     "gmtoffset":-18000
                  },
                  "post":{
                     "timezone":"EST",
                     "start":1642798800,
                     "end":1642813200,
                     "gmtoffset":-18000
                  }
               },
               "dataGranularity":"1mo",
               "range":"10y",
               "validRanges":[
                  "1d",
                  "5d",
                  "1mo",
                  "3mo",
                  "6mo",
                  "1y",
                  "2y",
                  "5y",
                  "10y",
                  "ytd",
                  "max"
               ]
            },
            "timestamp":[
               1328072400,
               1330578000,
               1333252800,
               1335844800,
               1338523200,
               1341115200,
               1343793600,
               1346472000,
               1349064000,
               1351742400,
               1354338000,
               1357016400,
               1359694800,
               1362114000,
               1364788800,
               1367380800,
               1370059200,
               1372651200,
               1375329600,
               1378008000,
               1380600000,
               1383278400,
               1385874000,
               1388552400,
               1391230800,
               1393650000,
               1396324800,
               1398916800,
               1401595200,
               1404187200,
               1406865600,
               1409544000,
               1412136000,
               1414814400,
               1417410000,
               1420088400,
               1422766800,
               1425186000,
               1427860800,
               1430452800,
               1433131200,
               1435723200,
               1438401600,
               1441080000,
               1443672000,
               1446350400,
               1448946000,
               1451624400,
               1454302800,
               1456808400,
               1459483200,
               1462075200,
               1464753600,
               1467345600,
               1470024000,
               1472702400,
               1475294400,
               1477972800,
               1480568400,
               1483246800,
               1485925200,
               1488344400,
               1491019200,
               1493611200,
               1496289600,
               1498881600,
               1501560000,
               1504238400,
               1506830400,
               1509508800,
               1512104400,
               1514782800,
               1517461200,
               1519880400,
               1522555200,
               1525147200,
               1527825600,
               1530417600,
               1533096000,
               1535774400,
               1538366400,
               1541044800,
               1543640400,
               1546318800,
               1548997200,
               1551416400,
               1554091200,
               1556683200,
               1559361600,
               1561953600,
               1564632000,
               1567310400,
               1569902400,
               1572580800,
               1575176400,
               1577854800,
               1580533200,
               1583038800,
               1585713600,
               1588305600,
               1590984000,
               1593576000,
               1596254400,
               1598932800,
               1601524800,
               1604203200,
               1606798800,
               1609477200,
               1612155600,
               1614574800,
               1617249600,
               1619841600,
               1622520000,
               1625112000,
               1627790400,
               1630468800,
               1633060800,
               1635739200,
               1638334800,
               1641013200,
               1642798803
            ],
            "events":{
               "dividends":{
                  "1328072400":{
                     "amount":0.2,
                     "date":1329229800
                  },
                  "1335844800":{
                     "amount":0.2,
                     "date":1337088600
                  },
                  "1343793600":{
                     "amount":0.2,
                     "date":1344951000
                  },
                  "1351742400":{
                     "amount":0.23,
                     "date":1352817000
                  },
                  "1359694800":{
                     "amount":0.23,
                     "date":1361284200
                  },
                  "1367380800":{
                     "amount":0.23,
                     "date":1368538200
                  },
                  "1375329600":{
                     "amount":0.23,
                     "date":1376400600
                  },
                  "1383278400":{
                     "amount":0.28,
                     "date":1384871400
                  },
                  "1391230800":{
                     "amount":0.28,
                     "date":1392733800
                  },
                  "1398916800":{
                     "amount":0.28,
                     "date":1399987800
                  },
                  "1406865600":{
                     "amount":0.28,
                     "date":1408455000
                  },
                  "1414814400":{
                     "amount":0.31,
                     "date":1416321000
                  },
                  "1422766800":{
                     "amount":0.31,
                     "date":1424183400
                  },
                  "1430452800":{
                     "amount":0.31,
                     "date":1432042200
                  },
                  "1438401600":{
                     "amount":0.31,
                     "date":1439904600
                  },
                  "1446350400":{
                     "amount":0.36,
                     "date":1447770600
                  },
                  "1454302800":{
                     "amount":0.36,
                     "date":1455633000
                  },
                  "1462075200":{
                     "amount":0.36,
                     "date":1463491800
                  },
                  "1470024000":{
                     "amount":0.36,
                     "date":1471354200
                  },
                  "1477972800":{
                     "amount":0.39,
                     "date":1479220200
                  },
                  "1485925200":{
                     "amount":0.39,
                     "date":1487082600
                  },
                  "1493611200":{
                     "amount":0.39,
                     "date":1494941400
                  },
                  "1501560000":{
                     "amount":0.39,
                     "date":1502803800
                  },
                  "1509508800":{
                     "amount":0.42,
                     "date":1510756200
                  },
                  "1517461200":{
                     "amount":0.42,
                     "date":1518618600
                  },
                  "1525147200":{
                     "amount":0.42,
                     "date":1526477400
                  },
                  "1533096000":{
                     "amount":0.42,
                     "date":1534339800
                  },
                  "1541044800":{
                     "amount":0.46,
                     "date":1542205800
                  },
                  "1548997200":{
                     "amount":0.46,
                     "date":1550673000
                  },
                  "1556683200":{
                     "amount":0.46,
                     "date":1557927000
                  },
                  "1564632000":{
                     "amount":0.46,
                     "date":1565789400
                  },
                  "1572580800":{
                     "amount":0.51,
                     "date":1574260200
                  },
                  "1580533200":{
                     "amount":0.51,
                     "date":1582122600
                  },
                  "1588305600":{
                     "amount":0.51,
                     "date":1589981400
                  },
                  "1596254400":{
                     "amount":0.51,
                     "date":1597843800
                  },
                  "1604203200":{
                     "amount":0.56,
                     "date":1605709800
                  },
                  "1612155600":{
                     "amount":0.56,
                     "date":1613572200
                  },
                  "1619841600":{
                     "amount":0.56,
                     "date":1621431000
                  },
                  "1627790400":{
                     "amount":0.56,
                     "date":1629293400
                  },
                  "1635739200":{
                     "amount":0.62,
                     "date":1637159400
                  }
               }
            },
            "indicators":{
               "quote":[
                  {
                     "low":[
                        29.709999084472656,
                        31.489999771118164,
                        30.229999542236328,
                        28.639999389648438,
                        28.31999969482422,
                        28.540000915527344,
                        28.969999313354492,
                        29.739999771118164,
                        27.760000228881836,
                        26.34000015258789,
                        26.260000228881836,
                        26.280000686645508,
                        27.100000381469727,
                        27.520000457763672,
                        28.110000610351562,
                        32.31999969482422,
                        32.56999969482422,
                        31.020000457763672,
                        30.84000015258789,
                        30.950000762939453,
                        32.79999923706055,
                        35.38999938964844,
                        35.529998779296875,
                        34.630001068115234,
                        35.689998626708984,
                        37.4900016784668,
                        38.900001525878906,
                        38.5099983215332,
                        39.86000061035156,
                        41.04999923706055,
                        42.209999084472656,
                        44.529998779296875,
                        42.099998474121094,
                        46.72999954223633,
                        44.900001525878906,
                        40.349998474121094,
                        40.22999954223633,
                        40.540000915527344,
                        40.119998931884766,
                        46.02000045776367,
                        43.939998626708984,
                        43.31999969482422,
                        39.720001220703125,
                        41.65999984741211,
                        43.75,
                        52.529998779296875,
                        53.68000030517578,
                        49.099998474121094,
                        48.189998626708984,
                        50.58000183105469,
                        49.349998474121094,
                        49.459999084472656,
                        48.040000915527344,
                        50.38999938964844,
                        56.13999938964844,
                        55.61000061035156,
                        56.31999969482422,
                        57.279998779296875,
                        58.79999923706055,
                        61.95000076293945,
                        62.75,
                        63.619998931884766,
                        64.8499984741211,
                        67.13999938964844,
                        68.08999633789062,
                        68.0199966430664,
                        71.27999877929688,
                        72.91999816894531,
                        73.70999908447266,
                        82.23999786376953,
                        80.69999694824219,
                        85.5,
                        83.83000183105469,
                        87.08000183105469,
                        87.51000213623047,
                        92.44999694824219,
                        97.26000213623047,
                        98.0,
                        104.83999633789062,
                        107.2300033569336,
                        100.11000061035156,
                        99.3499984741211,
                        93.95999908447266,
                        97.19999694824219,
                        102.3499984741211,
                        108.80000305175781,
                        118.0999984741211,
                        123.04000091552734,
                        119.01000213623047,
                        134.6699981689453,
                        130.77999877929688,
                        134.50999450683594,
                        133.22000122070312,
                        142.97000122070312,
                        146.64999389648438,
                        156.50999450683594,
                        152.0,
                        132.52000427246094,
                        150.36000061035156,
                        173.8000030517578,
                        181.35000610351562,
                        197.50999450683594,
                        203.13999938964844,
                        196.25,
                        199.6199951171875,
                        200.1199951171875,
                        209.11000061035156,
                        211.94000244140625,
                        227.8800048828125,
                        224.25999450683594,
                        238.0500030517578,
                        238.07000732421875,
                        243.0,
                        269.6000061035156,
                        283.739990234375,
                        281.6199951171875,
                        280.25,
                        326.3699951171875,
                        317.25,
                        295.6099853515625,
                        295.6099853515625
                     ],
                     "high":[
                        32.0,
                        32.95000076293945,
                        32.88999938964844,
                        32.34000015258789,
                        31.139999389648438,
                        31.049999237060547,
                        30.959999084472656,
                        31.610000610351562,
                        30.25,
                        30.200000762939453,
                        27.729999542236328,
                        28.229999542236328,
                        28.200000762939453,
                        28.65999984741211,
                        33.11000061035156,
                        35.279998779296875,
                        35.779998779296875,
                        36.43000030517578,
                        35.20000076293945,
                        33.75,
                        36.290000915527344,
                        38.290000915527344,
                        38.97999954223633,
                        37.88999938964844,
                        38.459999084472656,
                        41.5,
                        41.65999984741211,
                        40.970001220703125,
                        42.290000915527344,
                        45.709999084472656,
                        45.470001220703125,
                        47.56999969482422,
                        46.970001220703125,
                        50.04999923706055,
                        49.060001373291016,
                        47.90999984741211,
                        44.29999923706055,
                        44.189998626708984,
                        49.540000915527344,
                        48.90999984741211,
                        47.77000045776367,
                        47.400001525878906,
                        48.40999984741211,
                        45.0,
                        54.369998931884766,
                        54.97999954223633,
                        56.849998474121094,
                        55.38999938964844,
                        55.09000015258789,
                        55.63999938964844,
                        56.77000045776367,
                        53.0,
                        52.95000076293945,
                        57.290000915527344,
                        58.70000076293945,
                        58.189998626708984,
                        61.369998931884766,
                        61.40999984741211,
                        64.0999984741211,
                        65.91000366210938,
                        65.23999786376953,
                        66.19000244140625,
                        69.13999938964844,
                        70.73999786376953,
                        72.88999938964844,
                        74.41999816894531,
                        74.95999908447266,
                        75.97000122070312,
                        86.19999694824219,
                        85.05999755859375,
                        87.5,
                        95.44999694824219,
                        96.06999969482422,
                        97.23999786376953,
                        97.9000015258789,
                        99.98999786376953,
                        102.69000244140625,
                        111.1500015258789,
                        112.77999877929688,
                        115.29000091552734,
                        116.18000030517578,
                        112.23999786376953,
                        113.41999816894531,
                        107.9000015258789,
                        113.23999786376953,
                        120.81999969482422,
                        131.3699951171875,
                        130.64999389648438,
                        138.39999389648438,
                        141.67999267578125,
                        140.94000244140625,
                        142.3699951171875,
                        145.6699981689453,
                        152.5,
                        159.5500030517578,
                        174.0500030517578,
                        190.6999969482422,
                        175.0,
                        180.39999389648438,
                        187.50999450683594,
                        204.39999389648438,
                        216.3800048828125,
                        231.14999389648438,
                        232.86000061035156,
                        225.2100067138672,
                        228.1199951171875,
                        227.17999267578125,
                        242.63999938964844,
                        246.1300048828125,
                        241.0500030517578,
                        263.19000244140625,
                        254.35000610351562,
                        271.6499938964844,
                        290.1499938964844,
                        305.8399963378906,
                        305.32000732421875,
                        332.0,
                        349.6700134277344,
                        344.29998779296875,
                        338.0,
                        304.0799865722656
                     ],
                     "open":[
                        29.790000915527344,
                        31.93000030517578,
                        32.220001220703125,
                        32.04999923706055,
                        28.760000228881836,
                        30.6200008392334,
                        29.59000015258789,
                        30.450000762939453,
                        29.809999465942383,
                        28.84000015258789,
                        26.780000686645508,
                        27.25,
                        27.670000076293945,
                        27.719999313354492,
                        28.639999389648438,
                        32.93000030517578,
                        34.91999816894531,
                        34.75,
                        32.060001373291016,
                        31.75,
                        33.349998474121094,
                        35.66999816894531,
                        38.09000015258789,
                        37.349998474121094,
                        37.7400016784668,
                        37.91999816894531,
                        41.150001525878906,
                        40.2400016784668,
                        40.95000076293945,
                        41.86000061035156,
                        43.209999084472656,
                        45.43000030517578,
                        46.27000045776367,
                        46.88999938964844,
                        47.880001068115234,
                        46.65999984741211,
                        40.59000015258789,
                        43.66999816894531,
                        40.599998474121094,
                        48.58000183105469,
                        47.060001373291016,
                        44.459999084472656,
                        46.97999954223633,
                        42.16999816894531,
                        44.75,
                        52.849998474121094,
                        54.40999984741211,
                        54.31999969482422,
                        54.880001068115234,
                        50.970001220703125,
                        55.04999923706055,
                        50.0,
                        52.439998626708984,
                        51.130001068115234,
                        56.599998474121094,
                        57.0099983215332,
                        57.40999984741211,
                        59.970001220703125,
                        60.11000061035156,
                        62.790000915527344,
                        64.36000061035156,
                        64.12999725341797,
                        65.80999755859375,
                        68.68000030517578,
                        70.23999786376953,
                        69.33000183105469,
                        73.0999984741211,
                        74.70999908447266,
                        74.70999908447266,
                        83.68000030517578,
                        83.5999984741211,
                        86.12999725341797,
                        94.79000091552734,
                        93.98999786376953,
                        90.47000122070312,
                        93.20999908447266,
                        99.27999877929688,
                        98.0999984741211,
                        106.02999877929688,
                        110.8499984741211,
                        114.75,
                        107.05000305175781,
                        113.0,
                        99.55000305175781,
                        103.77999877929688,
                        112.88999938964844,
                        118.94999694824219,
                        130.52999877929688,
                        123.8499984741211,
                        136.6300048828125,
                        137.0,
                        136.61000061035156,
                        139.66000366210938,
                        144.25999450683594,
                        151.80999755859375,
                        158.77999877929688,
                        170.42999267578125,
                        165.30999755859375,
                        153.0,
                        175.8000030517578,
                        182.5399932861328,
                        203.13999938964844,
                        211.52000427246094,
                        225.50999450683594,
                        213.49000549316406,
                        204.2899932861328,
                        214.50999450683594,
                        222.52999877929688,
                        235.05999755859375,
                        235.89999389648438,
                        238.47000122070312,
                        253.39999389648438,
                        251.22999572753906,
                        269.6099853515625,
                        286.3599853515625,
                        302.8699951171875,
                        282.1199951171875,
                        331.3599853515625,
                        335.1300048828125,
                        335.3500061035156,
                        302.68499755859375
                     ],
                     "close":[
                        31.739999771118164,
                        32.2599983215332,
                        32.02000045776367,
                        29.190000534057617,
                        30.59000015258789,
                        29.469999313354492,
                        30.81999969482422,
                        29.760000228881836,
                        28.540000915527344,
                        26.6200008392334,
                        26.709999084472656,
                        27.450000762939453,
                        27.799999237060547,
                        28.610000610351562,
                        33.099998474121094,
                        34.900001525878906,
                        34.540000915527344,
                        31.84000015258789,
                        33.400001525878906,
                        33.279998779296875,
                        35.40999984741211,
                        38.130001068115234,
                        37.40999984741211,
                        37.84000015258789,
                        38.310001373291016,
                        40.9900016784668,
                        40.400001525878906,
                        40.939998626708984,
                        41.70000076293945,
                        43.15999984741211,
                        45.43000030517578,
                        46.36000061035156,
                        46.95000076293945,
                        47.810001373291016,
                        46.45000076293945,
                        40.400001525878906,
                        43.849998474121094,
                        40.65999984741211,
                        48.63999938964844,
                        46.86000061035156,
                        44.150001525878906,
                        46.70000076293945,
                        43.52000045776367,
                        44.2599983215332,
                        52.63999938964844,
                        54.349998474121094,
                        55.47999954223633,
                        55.09000015258789,
                        50.880001068115234,
                        55.22999954223633,
                        49.869998931884766,
                        53.0,
                        51.16999816894531,
                        56.68000030517578,
                        57.459999084472656,
                        57.599998474121094,
                        59.91999816894531,
                        60.2599983215332,
                        62.13999938964844,
                        64.6500015258789,
                        63.97999954223633,
                        65.86000061035156,
                        68.45999908447266,
                        69.83999633789062,
                        68.93000030517578,
                        72.69999694824219,
                        74.7699966430664,
                        74.48999786376953,
                        83.18000030517578,
                        84.16999816894531,
                        85.54000091552734,
                        95.01000213623047,
                        93.7699966430664,
                        91.2699966430664,
                        93.5199966430664,
                        98.83999633789062,
                        98.61000061035156,
                        106.08000183105469,
                        112.33000183105469,
                        114.37000274658203,
                        106.80999755859375,
                        110.88999938964844,
                        101.56999969482422,
                        104.43000030517578,
                        112.02999877929688,
                        117.94000244140625,
                        130.60000610351562,
                        123.68000030517578,
                        133.9600067138672,
                        136.27000427246094,
                        137.86000061035156,
                        139.02999877929688,
                        143.3699951171875,
                        151.3800048828125,
                        157.6999969482422,
                        170.22999572753906,
                        162.00999450683594,
                        157.7100067138672,
                        179.2100067138672,
                        183.25,
                        203.50999450683594,
                        205.00999450683594,
                        225.52999877929688,
                        210.3300018310547,
                        202.47000122070312,
                        214.07000732421875,
                        222.4199981689453,
                        231.9600067138672,
                        232.3800048828125,
                        235.77000427246094,
                        252.17999267578125,
                        249.67999267578125,
                        270.8999938964844,
                        284.9100036621094,
                        301.8800048828125,
                        281.9200134277344,
                        331.6199951171875,
                        330.5899963378906,
                        336.32000732421875,
                        296.0299987792969,
                        296.0299987792969
                     ],
                     "volume":[
                        984332300,
                        942366500,
                        940739700,
                        1014372600,
                        973131400,
                        846604100,
                        671748400,
                        893107700,
                        1105402300,
                        1310516100,
                        947310900,
                        1145054400,
                        780587000,
                        844946000,
                        1465757200,
                        1071860000,
                        945155500,
                        1111130600,
                        1051265000,
                        1242961500,
                        965331500,
                        800431600,
                        826617700,
                        930226200,
                        705304500,
                        778425700,
                        746112500,
                        574362900,
                        555767300,
                        731616500,
                        513919700,
                        860827300,
                        853260900,
                        523005900,
                        626771200,
                        918966800,
                        656509700,
                        824335300,
                        874535300,
                        633072800,
                        664853400,
                        725458100,
                        776480300,
                        673079900,
                        856716800,
                        662626600,
                        792820900,
                        927914700,
                        814770900,
                        641110900,
                        699025700,
                        530704800,
                        823627000,
                        647587800,
                        467078900,
                        526427800,
                        614841800,
                        613056800,
                        513579700,
                        493453500,
                        440744000,
                        489169700,
                        433191200,
                        517218500,
                        629716800,
                        469851200,
                        444070500,
                        375983900,
                        449950000,
                        421926000,
                        466203300,
                        574258400,
                        725663300,
                        750754800,
                        668130700,
                        509417900,
                        602585200,
                        569352300,
                        456628100,
                        480255500,
                        927548000,
                        720228600,
                        944314600,
                        714212800,
                        469095900,
                        589095800,
                        433157700,
                        547218800,
                        508324300,
                        484079900,
                        584482000,
                        472544800,
                        549523400,
                        392371800,
                        450303300,
                        558530000,
                        887522300,
                        1612695500,
                        984705000,
                        688845000,
                        764965400,
                        770190800,
                        692423900,
                        768176300,
                        631618000,
                        573443000,
                        594761700,
                        648076400,
                        490962200,
                        724945800,
                        568661600,
                        495084900,
                        508572200,
                        522668800,
                        441257000,
                        502886900,
                        516479200,
                        509870100,
                        625633000,
                        547917900,
                        55120533
                     ]
                  }
               ],
               "adjclose":[
                  {
                     "adjclose":[
                        25.69060516357422,
                        26.283397674560547,
                        26.08786392211914,
                        23.78215217590332,
                        25.086318969726562,
                        24.167827606201172,
                        25.27493667602539,
                        24.56733512878418,
                        23.56020736694336,
                        21.975215911865234,
                        22.23068618774414,
                        22.846599578857422,
                        23.137897491455078,
                        24.00921058654785,
                        27.777177810668945,
                        29.287717819213867,
                        29.188859939575195,
                        26.90715789794922,
                        28.22547721862793,
                        28.322246551513672,
                        30.13493537902832,
                        32.44973373413086,
                        32.07843780517578,
                        32.44716262817383,
                        32.850181579589844,
                        35.41179656982422,
                        34.90209197998047,
                        35.368595123291016,
                        36.279319763183594,
                        37.549537658691406,
                        39.52444839477539,
                        40.585479736328125,
                        41.10198211669922,
                        41.854854583740234,
                        40.92074203491211,
                        35.590911865234375,
                        38.63023376464844,
                        36.07488250732422,
                        43.154998779296875,
                        41.57571792602539,
                        39.4258918762207,
                        41.70303726196289,
                        38.86330795288086,
                        39.784751892089844,
                        47.31743621826172,
                        48.85453796386719,
                        50.20641326904297,
                        49.853492736816406,
                        46.04366683959961,
                        50.33903503417969,
                        45.45368957519531,
                        48.3065071105957,
                        46.96477508544922,
                        52.021968841552734,
                        52.73786163330078,
                        53.19585418701172,
                        55.338462829589844,
                        55.6524658203125,
                        57.77640914916992,
                        60.11015319824219,
                        59.48720169067383,
                        61.60643005371094,
                        64.03849792480469,
                        65.3293685913086,
                        64.84774780273438,
                        68.39445495605469,
                        70.34187316894531,
                        70.45181274414062,
                        78.67072296142578,
                        79.60706329345703,
                        81.30908966064453,
                        90.31069946289062,
                        89.13202667236328,
                        87.16321563720703,
                        89.31198120117188,
                        94.39259338378906,
                        94.58113098144531,
                        101.74591827392578,
                        107.74057006835938,
                        110.119384765625,
                        102.84033203125,
                        106.76871490478516,
                        98.21756744384766,
                        100.9831771850586,
                        108.33232879638672,
                        114.5343246459961,
                        126.82874298095703,
                        120.10858154296875,
                        130.57330322265625,
                        132.82485961914062,
                        134.37466430664062,
                        135.9663543701172,
                        140.21072387695312,
                        148.0442352294922,
                        154.74974060058594,
                        167.0453338623047,
                        158.9791259765625,
                        155.18226623535156,
                        176.33767700195312,
                        180.3129119873047,
                        200.80589294433594,
                        202.2859344482422,
                        222.53330993652344,
                        208.03695678710938,
                        200.26266479492188,
                        211.73619079589844,
                        220.57110595703125,
                        230.0318145751953,
                        230.44833374023438,
                        234.3486328125,
                        250.65969848632812,
                        248.1747589111328,
                        269.88861083984375,
                        283.8463134765625,
                        300.7529602050781,
                        281.4051818847656,
                        331.014404296875,
                        329.9862976074219,
                        336.32000732421875,
                        296.0299987792969,
                        296.0299987792969
                     ]
                  }
               ]
            }
         }
      ],
      "error":null
   }
}